The tidyverse
…
bookings <- read_csv("data/bookings.csv")

Rows: 10000 Columns: 8
── Column specification ────────────────────────────────────────────────────────
Delimiter: ","
chr (3): booker_id, checkin_day, status
dbl (4): property_id, room_nights, price_per_night, review_score
lgl (1): for_business

ℹ Use `spec()` to retrieve the full column specification for this data.
ℹ Specify the column types or set `show_col_types = FALSE` to quiet this message.

bookings

# A tibble: 10,000 × 8
   booker_id    property_id room_nights price_per_night checkin_day for_business
   <chr>              <dbl>       <dbl>           <dbl> <chr>       <lgl>       
 1 215934017ba…        2668           4            91.5 mon         FALSE       
 2 7f590fd6d31…        4656           5           107.  tue         FALSE       
 3 10f0f138e8b…        4563           6            87.0 wed         FALSE       
 4 7b55021a416…        4088           7            92.4 fri         FALSE       
 5 6694a79d158…        2188           4           105.  tue         FALSE       
 6 d0358740d5f…        4171           2           110.  fri         FALSE       
 7 944e568a0b5…        2907           4           116.  fri         FALSE       
 8 95476c2ef6b…        5141           4           111.  wed         FALSE       
 9 df235631a4c…        1696           1           106.  wed         FALSE       
10 ff610140227…        1901           7            82.3 sat         FALSE       
# ℹ 9,990 more rows
# ℹ 2 more variables: status <chr>, review_score <dbl>
…
Select the column review_score:

select(bookings, review_score)

# A tibble: 10,000 × 1
   review_score
          <dbl>
 1        NA   
 2        NA   
 3         6.26
 4         5.95
 5         6.43
 6        NA   
 7         7.60
 8        NA   
 9         6.97
10        NA   
# ℹ 9,990 more rows

The output is always a data.frame / tibble, regardless of whether a single or multiple columns are selected.

This is in line with the consistent API design of most dplyr functions:

The first argument is a data frame

The output is usually also a data frame

Select multiple columns by specifying column names as additional arguments:

select(bookings, review_score, status)

# A tibble: 10,000 × 2
   review_score status   
          <dbl> <chr>    
 1        NA    cancelled
 2        NA    cancelled
 3         6.26 stayed   
 4         5.95 stayed   
 5         6.43 stayed   
 6        NA    cancelled
 7         7.60 stayed   
 8        NA    cancelled
 9         6.97 stayed   
10        NA    cancelled
# ℹ 9,990 more rows

Exclude columns with negative selection: select all but specific columns using -.

select(bookings, -booker_id)

# A tibble: 10,000 × 7
   property_id room_nights price_per_night checkin_day for_business status   
         <dbl>       <dbl>           <dbl> <chr>       <lgl>        <chr>    
 1        2668           4            91.5 mon         FALSE        cancelled
 2        4656           5           107.  tue         FALSE        cancelled
 3        4563           6            87.0 wed         FALSE        stayed   
 4        4088           7            92.4 fri         FALSE        stayed   
 5        2188           4           105.  tue         FALSE        stayed   
 6        4171           2           110.  fri         FALSE        cancelled
 7        2907           4           116.  fri         FALSE        stayed   
 8        5141           4           111.  wed         FALSE        cancelled
 9        1696           1           106.  wed         FALSE        stayed   
10        1901           7            82.3 sat         FALSE        cancelled
# ℹ 9,990 more rows
# ℹ 1 more variable: review_score <dbl>
…
everything()
All (remaining) names

last_col()
Last column

Example:

Select all columns whose names either contain ‘id’ or end with ‘night’.

select(bookings, contains("id"), ends_with("night"))

# A tibble: 10,000 × 3
   booker_id                                property_id price_per_night
   <chr>                                          <dbl>           <dbl>
 1 215934017ba98c09f30dedd29237b43dad5c7b5f        2668            91.5
 2 7f590fd6d318248a48665f7f7db529aca40c84f5        4656           107. 
 3 10f0f138e8bb1015d3928f2b7d828cbb50cd0804        4563            87.0
 4 7b55021a4160dde65e31963fa55a096535bcad17        4088            92.4
 5 6694a79d158c7818cd63831b71bac91286db5aff        2188           105. 
 6 d0358740d5f15e85523f94ab8219f25d8c017347        4171           110. 
 7 944e568a0b511b9140bcc7c7c80c68c3edd3a86f        2907           116. 
 8 95476c2ef6bb9e3c227b46f1283310737fa13b7a        5141           111. 
 9 df235631a4c281c01e007b6a4c364e07f5843994        1696           106. 
10 ff610140227d40d27daa01f0dcd5d64ea82e833d        1901            82.3
# ℹ 9,990 more rows
…
Example:

Filter bookings that were completed and not canceled.

filter(bookings, status == "stayed")

# A tibble: 7,775 × 8
   booker_id    property_id room_nights price_per_night checkin_day for_business
   <chr>              <dbl>       <dbl>           <dbl> <chr>       <lgl>       
 1 10f0f138e8b…        4563           6            87.0 wed         FALSE       
 2 7b55021a416…        4088           7            92.4 fri         FALSE       
 3 6694a79d158…        2188           4           105.  tue         FALSE       
 4 944e568a0b5…        2907           4           116.  fri         FALSE       
 5 df235631a4c…        1696           1           106.  wed         FALSE       
 6 aeff2e2d3d2…        2188           1           109.  wed         FALSE       
 7 5a1442f4c72…        2307           9            84.2 sat         FALSE       
 8 39804a2e3fb…        2907           6           112.  sun         FALSE       
 9 e150e559405…        2870           4           127.  sat         FALSE       
10 4e9c7c21dfc…        1674           5           102.  sun         FALSE       
# ℹ 7,765 more rows
# ℹ 2 more variables: status <chr>, review_score <dbl>

Combine multiple conditions with &.

filter(
  bookings, 
  status == "stayed" & 
    !is.na(review_score) & 
    price_per_night >= 90 & 
    price_per_night <= 120
)

# A tibble: 3,032 × 8
   booker_id    property_id room_nights price_per_night checkin_day for_business
   <chr>              <dbl>       <dbl>           <dbl> <chr>       <lgl>       
 1 7b55021a416…        4088           7            92.4 fri         FALSE       
 2 6694a79d158…        2188           4           105.  tue         FALSE       
 3 944e568a0b5…        2907           4           116.  fri         FALSE       
 4 df235631a4c…        1696           1           106.  wed         FALSE       
 5 39804a2e3fb…        2907           6           112.  sun         FALSE       
 6 4e9c7c21dfc…        1674           5           102.  sun         FALSE       
 7 8537874da3f…        4420           2           106.  sat         FALSE       
 8 0fcce2f5be8…        1951           3           110.  wed         FALSE       
 9 9864af3aba5…        1981           3            96.9 sun         FALSE       
10 ccd24f99357…        2307           3           115.  fri         FALSE       
# ℹ 3,022 more rows
# ℹ 2 more variables: status <chr>, review_score <dbl>

Sort rows with arrange()

arrange(bookings, price_per_night) # default: sort in ascending order

# A tibble: 10,000 × 8
   booker_id    property_id room_nights price_per_night checkin_day for_business
   <chr>              <dbl>       <dbl>           <dbl> <chr>       <lgl>       
 1 028c395e745…        3096           1            39.4 tue         FALSE       
 2 037bec01b4f…        3619           1            45.8 wed         TRUE        
 3 7341b69d8de…        3983           1            47.7 thu         TRUE        
 4 cbedb290616…        1172           2            53.2 thu         TRUE        
 5 dff926426fd…        4354           6            54.2 fri         FALSE       
 6 b28ca9bd608…        3118           2            54.8 sun         TRUE        
 7 e2aff0e6df1…        4116           5            55.7 tue         FALSE       
 8 28421366c10…        4391           4            56.6 fri         FALSE       
 9 a07a0a8a9d8…        4150           2            57.7 sat         FALSE       
10 97a4a1dcdce…        1172           2            61.0 tue         TRUE        
# ℹ 9,990 more rows
# ℹ 2 more variables: status <chr>, review_score <dbl>

arrange(bookings, desc(price_per_night))

# A tibble: 10,000 × 8
   booker_id    property_id room_nights price_per_night checkin_day for_business
   <chr>              <dbl>       <dbl>           <dbl> <chr>       <lgl>       
 1 3d62487f314…        4931           1            273. tue         TRUE        
 2 dc6add0d953…        2305           1            272. fri         TRUE        
 3 c57c799c4fa…        5034           1            263. tue         TRUE        
 4 0dbc70d94f4…        1819           1            259. fri         TRUE        
 5 1d0d33ccf02…        2306           1            257. fri         FALSE       
 6 6b70130a6cd…        3916           1            256. tue         TRUE        
 7 c478924be4b…        2464           1            255. sun         FALSE       
 8 52779fc42be…        3832           1            255. tue         TRUE        
 9 23a1258e825…        1971           1            254. tue         TRUE        
10 58a1a0debac…        2888           1            252. sun         FALSE       
# ℹ 9,990 more rows
# ℹ 2 more variables: status <chr>, review_score <dbl>
…
THEN sort by review score in descending order

THEN take the top-5 bookings

THEN return price per night and review score.”

Adding new columns with mutate()

Create a new column for the total price of a booking, which is the product of price_per_night and room_nights.

bookings |>
  mutate(total_price = price_per_night * room_nights)

# A tibble: 10,000 × 9
   booker_id    property_id room_nights price_per_night checkin_day for_business
   <chr>              <dbl>       <dbl>           <dbl> <chr>       <lgl>       
 1 215934017ba…        2668           4            91.5 mon         FALSE       
 2 7f590fd6d31…        4656           5           107.  tue         FALSE       
 3 10f0f138e8b…        4563           6            87.0 wed         FALSE       
 4 7b55021a416…        4088           7            92.4 fri         FALSE       
 5 6694a79d158…        2188           4           105.  tue         FALSE       
 6 d0358740d5f…        4171           2           110.  fri         FALSE       
 7 944e568a0b5…        2907           4           116.  fri         FALSE       
 8 95476c2ef6b…        5141           4           111.  wed         FALSE       
 9 df235631a4c…        1696           1           106.  wed         FALSE       
10 ff610140227…        1901           7            82.3 sat         FALSE       
# ℹ 9,990 more rows
# ℹ 3 more variables: status <chr>, review_score <dbl>, total_price <dbl>

Syntax: mutate(name of new variable = equation)

Note that a new variable will be appended as the last column of the data frame.

bookings |>
  mutate(total_price = price_per_night * room_nights, .after = price_per_night)

# A tibble: 10,000 × 9
   booker_id     property_id room_nights price_per_night total_price checkin_day
   <chr>               <dbl>       <dbl>           <dbl>       <dbl> <chr>      
 1 215934017ba9…        2668           4            91.5        366. mon        
 2 7f590fd6d318…        4656           5           107.         533. tue        
 3 10f0f138e8bb…        4563           6            87.0        522. wed        
 4 7b55021a4160…        4088           7            92.4        647. fri        
 5 6694a79d158c…        2188           4           105.         419. tue        
 6 d0358740d5f1…        4171           2           110.         220. fri        
 7 944e568a0b51…        2907           4           116.         465. fri        
 8 95476c2ef6bb…        5141           4           111.         446. wed        
 9 df235631a4c2…        1696           1           106.         106. wed        
10 ff610140227d…        1901           7            82.3        576. sat        
# ℹ 9,990 more rows
# ℹ 3 more variables: for_business <lgl>, status <chr>, review_score <dbl>
…
Combining multiple data frames

What is the number of bookings per destination (city)?

To answer this question, we have to combine the two data frames bookings and properties.

properties <- read_csv("data/properties.csv")
properties

# A tibble: 4,178 × 5
   property_id destination property_type nr_rooms facilities                    
         <dbl> <chr>       <chr>            <dbl> <chr>                         
 1        2668 Brisbane    Hotel               32 airport shuttle,free wifi,gar…
 2        4656 Brisbane    Hotel               39 on-site restaurant,pool,airpo…
 3        4563 Brisbane    Apartment            9 laundry                       
 4        4088 Brisbane    Apartment            9 kitchen,laundry,free wifi     
 5        2188 Brisbane    Apartment            4 parking,kitchen,bbq,free wifi…
 6        4171 Brisbane    Apartment            5 kitchen,pool,laundry,parking,…
 7        2907 Brisbane    Hotel               22 airport shuttle,on-site resta…
 8        5141 Brisbane    Hotel               20 breakfast,free wifi,on-site r…
 9        1696 Brisbane    Apartment            5 free wifi,laundry,pool,game c…
10        1901 Brisbane    Apartment           11 free wifi,bbq,laundry,breakfa…
# ℹ 4,168 more rows
…
Reshaping from “long” to “wide”

Compute the number of bookings per city and day:

day_order <- c("mon", "tue", "wed", "thu", "fri", "sat", "sun")
df <- bookings |> inner_join(properties, by = "property_id")
checkin_count <- df |>
  count(destination, checkin_day) |>
  mutate(checkin_day = factor(checkin_day, levels = day_order)) |>
  arrange(destination, checkin_day)
checkin_count

# A tibble: 21 × 3
   destination checkin_day     n
   <chr>       <fct>       <int>
 1 Amsterdam   mon           517
 2 Amsterdam   tue           498
 3 Amsterdam   wed           542
 4 Amsterdam   thu           667
 5 Amsterdam   fri          1074
 6 Amsterdam   sat           889
 7 Amsterdam   sun           813
 8 Brisbane    mon           133
 9 Brisbane    tue           148
10 Brisbane    wed           128
# ℹ 11 more rows
checkin_count |>
  pivot_wider(names_from = checkin_day, values_from = n)

# A tibble: 3 × 8
  destination   mon   tue   wed   thu   fri   sat   sun
  <chr>       <int> <int> <int> <int> <int> <int> <int>
1 Amsterdam     517   498   542   667  1074   889   813
2 Brisbane      133   148   128   162   162   114   153
3 Tokyo         718   655   560   718   451   322   576

checkin_count |>
  pivot_wider(names_from = checkin_day, values_from = n) |>
  pivot_longer(cols = -destination, names_to = "checkin_day", values_to = "n")

# A tibble: 21 × 3
   destination checkin_day     n
   <chr>       <chr>       <int>
 1 Amsterdam   mon           517
 2 Amsterdam   tue           498
 3 Amsterdam   wed           542
 4 Amsterdam   thu           667
 5 Amsterdam   fri          1074
 6 Amsterdam   sat           889
 7 Amsterdam   sun           813
 8 Brisbane    mon           133
 9 Brisbane    tue           148
10 Brisbane    wed           128
# ℹ 11 more rows
…
